<?xml version="1.0" standalone="no"?>
<!DOCTYPE svg PUBLIC "-//W3C//DTD SVG 1.1//EN" "http://www.w3.org/Graphics/SVG/1.1/DTD/svg11.dtd" >
<svg xmlns="http://www.w3.org/2000/svg">
<metadata></metadata>
<defs>
<font id="tradegothicregular" horiz-adv-x="909" >
<font-face units-per-em="2048" ascent="1638" descent="-410" />
<missing-glyph horiz-adv-x="454" />
<glyph horiz-adv-x="2048" />
<glyph horiz-adv-x="2048" />
<glyph unicode="&#xd;" horiz-adv-x="681" />
<glyph unicode=" "  horiz-adv-x="454" />
<glyph unicode="&#x09;" horiz-adv-x="454" />
<glyph unicode="&#xa0;" horiz-adv-x="454" />
<glyph unicode="!" horiz-adv-x="569" d="M156 1479h258l-45 -1045h-168zM164 0v242h242v-242h-242z" />
<glyph unicode="&#x22;" horiz-adv-x="681" d="M82 918v561h192v-561h-192zM408 918v561h192v-561h-192z" />
<glyph unicode="#" d="M20 438v160h156l31 283h-135v159h155l52 439h182l-51 -439h165l52 439h182l-51 -439h131v-159h-148l-32 -283h127v-160h-148l-49 -438h-184l51 438h-166l-49 -438h-187l52 438h-136zM360 598h164l33 283h-164z" />
<glyph unicode="$" d="M61 231l170 129q49 -131 162 -163v481q-141 86 -226 186.5t-85 235.5q0 147 83 254t228 125v180h123v-180q178 -35 285 -187l-156 -133q-61 104 -129 119v-424q162 -102 247 -201.5t85 -255.5q0 -160 -88 -271.5t-244 -125.5v-238h-123v238q-197 20 -332 231zM291 1126 q0 -112 102 -204v356q-47 -14 -74.5 -56t-27.5 -96zM516 197q115 45 115 190q0 70 -28 115t-87 98v-403z" />
<glyph unicode="%" horiz-adv-x="1593" d="M102 1143q0 139 98.5 237.5t238 98.5t237.5 -98.5t98 -237.5t-98 -237.5t-237.5 -98.5t-238 98.5t-98.5 237.5zM266 1142.5q0 -69.5 51.5 -120.5t121 -51t120.5 51t51 120.5t-51 121t-120.5 51.5t-121 -51.5t-51.5 -121zM303 -20l838 1519h153l-837 -1519h-154zM819 336 q0 139 98.5 237.5t237.5 98.5t237.5 -98.5t98.5 -237.5t-98.5 -237.5t-237.5 -98.5t-237.5 98.5t-98.5 237.5zM983 336q0 -70 51 -121t121 -51t121 51t51 121t-51 121t-121 51t-121 -51t-51 -121z" />
<glyph unicode="&#x26;" horiz-adv-x="1138" d="M106 326q0 207 195 417q-117 260 -117 408q0 156 83 252t239 96q139 0 220 -84t81 -223q0 -27 -4 -54.5t-10.5 -50t-19.5 -50t-21.5 -46t-29 -46t-30.5 -41t-34.5 -43.5t-34 -40t-37 -39.5t-33.5 -38.5q80 -168 184 -301q70 181 90 275l209 -55q-6 -33 -17 -69 t-19.5 -61.5t-25 -67.5t-23.5 -60.5t-27.5 -67.5t-26.5 -62q63 -57 141 -69v-225q-168 4 -286 112q-119 -113 -291 -112q-160 0 -257.5 96t-97.5 250zM340 358q0 -66 42 -111.5t107.5 -45.5t116.5 43q-135 162 -203 297q-63 -97 -63 -183zM393 1206q0 -113 70 -284 q123 162 123 270q0 160 -92 160q-101 -1 -101 -146z" />
<glyph unicode="'" horiz-adv-x="454" d="M131 918v561h193v-561h-193z" />
<glyph unicode="(" horiz-adv-x="569" d="M66 661.5q0 223.5 63 441.5t178 396h197q-242 -375 -242 -837.5t242 -837.5h-197q-115 178 -178 396t-63 441.5z" />
<glyph unicode=")" horiz-adv-x="569" d="M66 -176q242 375 242 837.5t-242 837.5h196q115 -178 178.5 -396t63.5 -441.5t-63.5 -441.5t-178.5 -396h-196z" />
<glyph unicode="*" d="M86 1139l61 182q123 -74 261 -137q-10 131 -50 295h193q-39 -164 -49 -295q137 63 260 137l61 -182q-29 -2 -309 -35q131 -141 227 -219l-161 -113q-20 57 -125 287q-104 -229 -125 -287l-162 113q96 78 227 219q-281 33 -309 35z" />
<glyph unicode="+" horiz-adv-x="1228" d="M96 418v200h418v418h201v-418h418v-200h-418v-418h-201v418h-418z" />
<glyph unicode="," horiz-adv-x="454" d="M98 -254l101 254h-93v242h242v-242l-141 -254h-109z" />
<glyph unicode="-" horiz-adv-x="681" d="M90 457v188h502v-188h-502z" />
<glyph unicode="." horiz-adv-x="454" d="M106 0v242h242v-242h-242z" />
<glyph unicode="/" horiz-adv-x="569" d="M-43 -20l455 1519h200l-454 -1519h-201z" />
<glyph unicode="0" d="M94 385v709q0 211 86 308t274.5 97t274.5 -97t86 -308v-709q0 -211 -86 -308t-274.5 -97t-274.5 97t-86 308zM336 322q0 -141 118.5 -141t118.5 141v835q0 141 -118.5 141t-118.5 -141v-835z" />
<glyph unicode="1" d="M162 1171v138q193 98 301 190h129v-1499h-230v1171h-200z" />
<glyph unicode="2" d="M90 0v199q279 406 383.5 594t104.5 337q0 168 -115 168q-59 0 -91 -42t-32 -111v-101h-242v70q0 168 101.5 276.5t275.5 108.5q152 0 248 -97t96 -231q0 -180 -90 -367.5t-381 -594.5h449v-209h-707z" />
<glyph unicode="3" d="M94 340v88h230v-100q0 -147 114 -148q121 0 121 174v113q0 119 -49 164t-168 45v201q115 0 161 48t46 177q0 106 -23.5 151t-79.5 45q-57 0 -85.5 -33.5t-28.5 -117.5v-62h-230v70q0 154 92.5 249t254.5 95q156 0 242.5 -110.5t86.5 -268.5q0 -137 -32.5 -213 t-127.5 -127q109 -57 146 -134t37 -232q0 -221 -90 -327.5t-279 -106.5q-338 0 -338 360z" />
<glyph unicode="4" d="M33 356v189l430 934h246v-934h135v-189h-135v-356h-234v356h-442zM227 545h252v577h-4z" />
<glyph unicode="5" d="M102 315v113h230v-119q0 -59 30.5 -94t81.5 -35q125 0 125 180v336q0 68 -29.5 101.5t-76.5 33.5q-96 0 -137 -112h-197q18 516 18 760h617l-8 -209h-400l-14 -320l4 -4q45 53 87 69.5t108 16.5q270 0 270 -389v-205q0 -238 -81 -348t-263 -110q-166 0 -265.5 80.5 t-99.5 254.5z" />
<glyph unicode="6" d="M94 385v709q0 211 86 308t275 97q147 2 238 -91t91 -237v-90h-221v76q0 141 -108 141q-119 0 -119 -141v-346q55 55 96 76.5t113 21.5q119 0 194.5 -74.5t75.5 -228.5v-176q0 -236 -85 -343t-275 -107q-188 0 -274.5 97t-86.5 308zM336 322q0 -141 118.5 -141.5 t118.5 141.5v245q0 141 -106 142q-47 0 -131 -68v-319z" />
<glyph unicode="7" d="M115 1270v209h667v-144l-301 -1335h-239l297 1270h-424z" />
<glyph unicode="8" d="M94 410q0 145 33 233t121 145q-133 96 -133 295q0 209 89 312.5t250.5 103.5t251 -103.5t89.5 -312.5q0 -199 -133 -295q88 -57 120.5 -145t32.5 -233q0 -209 -91 -319.5t-269.5 -110.5t-269.5 110.5t-91 319.5zM324 426q0 -246 131 -246t131 246t-131 246t-131 -246z M344 1095.5q0 -106.5 25.5 -154.5t85 -48t85 48t25.5 154.5t-25.5 154.5t-85 48t-85 -48t-25.5 -154.5z" />
<glyph unicode="9" d="M94 872v177q0 236 85 343t276 107q188 0 274 -97t86 -308v-709q0 -211 -86 -308t-274 -97q-147 -2 -238.5 91t-91.5 236v90h221v-75q0 -141 109 -142q119 0 118 142v346q-55 -55 -96 -77t-112 -22q-119 0 -195 75t-76 228zM336 911q0 -141 106 -141q47 0 131 68v319 q0 141 -118.5 141t-118.5 -141v-246z" />
<glyph unicode=":" horiz-adv-x="454" d="M106 0v242h242v-242h-242zM106 569v242h242v-242h-242z" />
<glyph unicode=";" horiz-adv-x="454" d="M98 -254l101 254h-93v242h242v-242l-141 -254h-109zM106 569v242h242v-242h-242z" />
<glyph unicode="&#x3c;" horiz-adv-x="1228" d="M96 432v172l1037 432v-213l-748 -305l748 -305v-213z" />
<glyph unicode="=" horiz-adv-x="1228" d="M96 205v201h1037v-201h-1037zM96 631v200h1037v-200h-1037z" />
<glyph unicode="&#x3e;" horiz-adv-x="1228" d="M96 0v213l748 305l-748 305v213l1037 -432v-172z" />
<glyph unicode="?" horiz-adv-x="796" d="M66 1229q94 270 370 270q119 0 207 -79t88 -195q0 -70 -22.5 -134.5t-40 -91t-64.5 -92.5q-41 -55 -63.5 -94t-43 -110.5t-20.5 -157.5v-111h-196v172q0 158 106 355q6 12 25.5 46.5t26.5 48t20.5 41t18.5 44t10.5 38t5.5 40.5q0 37 -25 64.5t-61 27.5q-104 0 -146 -156z M254 0v242h242v-242h-242z" />
<glyph unicode="@" horiz-adv-x="1638" d="M82 739q0 326 224 543t546 217q285 0 494.5 -175t209.5 -445q0 -119 -38.5 -221.5t-97 -167t-128 -111.5t-132 -66.5t-109.5 -19.5q-49 0 -82 27.5t-35 82.5l-4 3q-102 -113 -221 -113q-131 0 -224.5 100.5t-93.5 239.5q0 203 124 359.5t316 156.5q158 0 240 -133l33 106 h166l-129 -526q-14 -57 -15 -80q0 -55 33 -55q90 0 164 108.5t74 266.5q0 238 -155 370.5t-392 132.5q-260 0 -422 -171t-162 -433t172 -429t436 -167q266 0 437 170h170q-104 -158 -266 -243.5t-353 -85.5q-332 0 -556 211.5t-224 547.5zM596 659q0 -78 44 -130t116 -52 q106 0 179 98.5t73 210.5q0 76 -45 127.5t-113 51.5q-106 0 -180 -98.5t-74 -207.5z" />
<glyph unicode="A" d="M25 0l272 1479h315l273 -1479h-246l-45 328h-279l-45 -328h-245zM352 549h205l-100 635h-4z" />
<glyph unicode="B" horiz-adv-x="1024" d="M123 0v1479h377q393 0 393 -392q0 -102 -44 -188t-132 -121q205 -90 205 -350q0 -197 -96.5 -312.5t-301.5 -115.5h-401zM377 209h106q98 0 141.5 56.5t43.5 170.5q0 117 -49.5 172.5t-159.5 55.5h-82v-455zM377 872h92q76 0 123 49.5t47 139.5q0 209 -166 209h-96v-398z " />
<glyph unicode="C" horiz-adv-x="1024" d="M123 358v762q0 166 99.5 272.5t289.5 106.5q182 0 279.5 -114.5t97.5 -290.5v-109h-254v115q0 88 -35 133t-88 45q-74 0 -104.5 -39t-30.5 -125v-749q0 -86 30.5 -125t104.5 -39q68 0 95.5 36.5t27.5 112.5v178h254v-170q0 -166 -97.5 -272t-279.5 -106 q-190 0 -289.5 106.5t-99.5 271.5z" />
<glyph unicode="D" horiz-adv-x="1024" d="M123 0v1479h377q401 0 401 -447v-586q0 -446 -401 -446h-377zM377 209h88q102 0 142 45t40 162v647q0 117 -40 162t-142 45h-88v-1061z" />
<glyph unicode="E" d="M123 0v1479h680v-222h-426v-380h328v-222h-328v-434h454v-221h-708z" />
<glyph unicode="F" d="M123 0v1479h708v-222h-454v-380h340v-222h-340v-655h-254z" />
<glyph unicode="G" horiz-adv-x="1024" d="M123 358v762q0 166 96 272.5t277 106.5q182 0 281.5 -114.5t99.5 -290.5v-95h-242q0 160 -34 219.5t-112 59.5q-113 0 -112 -162v-760q0 -155 117 -155h2q76 0 107.5 47t31.5 158v143h-162v201h416v-750h-123l-47 111q-59 -72 -114.5 -101.5t-141.5 -29.5 q-152 0 -246 102t-94 276z" />
<glyph unicode="H" horiz-adv-x="1024" d="M123 0v1479h254v-602h270v602h254v-1479h-254v655h-270v-655h-254z" />
<glyph unicode="I" horiz-adv-x="569" d="M158 0v1479h254v-1479h-254z" />
<glyph unicode="J" horiz-adv-x="569" d="M6 -20v221h53q72 0 103 29.5t31 93.5v1155h253v-1184q0 -154 -78.5 -234.5t-277.5 -80.5h-84z" />
<glyph unicode="K" d="M111 0v1479h254v-547h4l266 547h254l-275 -551l310 -928h-258l-207 688h-4l-90 -164v-524h-254z" />
<glyph unicode="L" horiz-adv-x="796" d="M111 0v1479h254v-1258h399v-221h-653z" />
<glyph unicode="M" horiz-adv-x="1251" d="M109 0v1479h333l181 -865h4l180 865h334v-1479h-221v1155h-5l-229 -1155h-123l-229 1155h-4v-1155h-221z" />
<glyph unicode="N" horiz-adv-x="1024" d="M123 0v1479h235l310 -846h4v846h229v-1479h-221l-324 924h-4v-924h-229z" />
<glyph unicode="O" horiz-adv-x="1024" d="M123 358v762q0 166 99.5 272.5t289.5 106.5t289.5 -106.5t99.5 -272.5v-762q0 -166 -99.5 -272t-289.5 -106t-289.5 106t-99.5 272zM377 365q0 -86 30.5 -125t104.5 -39t104.5 39t30.5 125v749q0 86 -30.5 125t-104.5 39t-104.5 -39t-30.5 -125v-749z" />
<glyph unicode="P" horiz-adv-x="1024" d="M123 0v1479h364q240 0 349.5 -101.5t109.5 -335t-109.5 -335t-349.5 -101.5h-110v-606h-254zM377 815h98q125 0 171 48t46 179.5t-46 179.5t-171 48h-98v-455z" />
<glyph unicode="Q" horiz-adv-x="1024" d="M123 358v762q0 166 99.5 272.5t289.5 106.5t289.5 -106.5t99.5 -272.5v-762q0 -109 -43 -190q62 -53 119 -57v-222q-80 0 -137.5 27t-120.5 111q-84 -47 -207 -47q-190 0 -289.5 106.5t-99.5 271.5zM377 365q0 -86 30.5 -125t104.5 -39q57 0 86 22q-27 49 -68 80v225 q70 -37 117 -90v676q0 86 -30.5 125t-104.5 39t-104.5 -39t-30.5 -125v-749z" />
<glyph unicode="R" horiz-adv-x="1024" d="M123 0v1479h356q219 0 324.5 -102.5t105.5 -334.5q0 -293 -178 -372l215 -670h-258l-180 612q-49 -6 -131 -6v-606h-254zM377 815h90q104 0 146 49t42 178t-42 178.5t-146 49.5h-90v-455z" />
<glyph unicode="S" d="M57 389l242 35q8 -109 48 -166t104 -57q68 0 107.5 34.5t39.5 100.5q0 80 -53 152.5t-129 134t-152 128t-129 165t-53 214.5q0 176 102.5 272.5t290.5 96.5q152 0 243 -98t109 -260l-241 -27q-6 88 -45 126t-90 38q-127 0 -127 -145q0 -68 53 -136.5t129 -131t151.5 -132 t129 -167t53.5 -208.5q0 -180 -109.5 -279t-292.5 -99q-170 0 -271 117.5t-110 291.5z" />
<glyph unicode="T" horiz-adv-x="796" d="M25 1257v222h745v-222h-246v-1257h-254v1257h-245z" />
<glyph unicode="U" horiz-adv-x="1024" d="M123 373v1106h254v-1117q0 -162 134 -162h1q135 0 135 162v1117h254v-1106q0 -188 -103.5 -290.5t-285.5 -102.5t-285.5 102.5t-103.5 290.5z" />
<glyph unicode="V" d="M18 1479h250l185 -1026h4l184 1026h250l-309 -1479h-254z" />
<glyph unicode="W" horiz-adv-x="1366" d="M0 1479h238l155 -942h4l166 942h209l172 -942h4l142 942h237l-260 -1479h-213l-184 977h-4l-172 -977h-213z" />
<glyph unicode="X" d="M29 0l290 774l-270 705h250l156 -469h4l141 469h250l-256 -705l287 -774h-250l-172 539h-4l-176 -539h-250z" />
<glyph unicode="Y" d="M20 1479h259l178 -564h4l170 564h258l-307 -865v-614h-254v614z" />
<glyph unicode="Z" d="M90 0v242l473 1015h-416v222h672v-242l-467 -1016h467v-221h-729z" />
<glyph unicode="[" horiz-adv-x="569" d="M74 -156v1635h438v-99h-242v-1437h242v-99h-438z" />
<glyph unicode="\" horiz-adv-x="569" d="M-43 1499h201l454 -1519h-200z" />
<glyph unicode="]" horiz-adv-x="569" d="M57 -57h242v1437h-242v99h439v-1635h-439v99z" />
<glyph unicode="^" horiz-adv-x="1228" d="M115 618l389 861h221l389 -861h-223l-279 619l-278 -619h-219z" />
<glyph unicode="_" horiz-adv-x="1024" d="M0 -154h1024v-102h-1024v102z" />
<glyph unicode="`" horiz-adv-x="454" d="M-66 1528h277l162 -295h-170z" />
<glyph unicode="a" d="M70 227q0 176 116.5 289t372.5 211v66q0 141 -113 141q-74 0 -100.5 -39t-30.5 -117h-229q8 166 106.5 255t262.5 89q162 0 247.5 -74.5t85.5 -224.5v-706q0 -31 14 -117h-218q-2 16 -7.5 45t-5.5 41q-131 -106 -268 -106q-113 0 -173 68.5t-60 178.5zM299 268 q0 -100 107 -100q81 0 153 102v289q-150 -86 -205 -150.5t-55 -140.5z" />
<glyph unicode="b" d="M111 0v1479h229v-471q57 47 81.5 64.5t66.5 33.5t90 16q109 0 171 -79.5t62 -227.5v-528q0 -147 -62.5 -227t-170.5 -80q-84 0 -135.5 29.5t-110.5 105.5h-4v-115h-217zM340 225q78 -57 131 -57q111 0 111 178v410q0 178 -111 178q-53 0 -131 -57v-652z" />
<glyph unicode="c" d="M98 389v324q0 409 355 409h2q350 0 356 -397h-229v29q0 180 -127 180t-127 -180v-406q0 -180 127 -180t127 180v70h229v-29q0 -410 -356 -410l-1 1q-356 0 -356 409z" />
<glyph unicode="d" d="M98 287v528q0 147 62.5 227t171.5 80q47 0 89 -16t66.5 -33.5t81.5 -64.5v471h230v-1479h-217v115h-4q-59 -76 -110.5 -105.5t-135.5 -29.5q-109 0 -171.5 79.5t-62.5 227.5zM328 346q0 -178 110 -178q53 0 131 57v652q-78 57 -131 57q-111 0 -110 -178v-410z" />
<glyph unicode="e" d="M98 389v324q0 410 356.5 410t356.5 -410v-205h-483v-160q0 -180 127 -180t127 180v25h229q-6 -393 -356 -393q-356 0 -357 409zM328 696h254v58q0 180 -127 180t-127 -180v-58z" />
<glyph unicode="f" horiz-adv-x="569" d="M20 913v189h136v137q0 260 256 260h114v-188h-65q-41 0 -58.5 -16.5t-17.5 -57.5v-135h131v-189h-131v-913h-229v913h-136z" />
<glyph unicode="g" d="M37 -172q0 61 44 109.5t105 62.5v4q-104 41 -104 139.5t139 178.5q-90 61 -118.5 134.5t-28.5 260.5q0 225 81 315t275 90q152 0 254 -118q49 72 83.5 95t104.5 23v-190q-12 2 -36 2q-68 0 -111 -35q25 -86 25 -174q0 -244 -83 -343t-266 -99h-73q-45 -12 -45 -51 t60 -51.5t147.5 -14.5t174.5 -14.5t147 -70.5t60 -167q0 -262 -471 -262q-174 0 -269 45t-95 131zM279 -102q0 -45 40.5 -63.5t153.5 -18.5t154 18.5t41 63.5t-41 63.5t-154 18.5t-153.5 -18.5t-40.5 -63.5zM291 702.5q0 -133.5 28 -182.5t87 -49q68 0 91 46t23 185.5 t-23.5 185.5t-90.5 46q-59 0 -87 -49t-28 -182.5z" />
<glyph unicode="h" d="M111 0v1479h229v-480q57 49 79.5 67.5t73 37t113.5 18.5q90 0 141.5 -61.5t51.5 -169.5v-891h-230v854q0 80 -82 80q-51 0 -147 -70v-864h-229z" />
<glyph unicode="i" horiz-adv-x="454" d="M113 0v1102h229v-1102h-229zM113 1270v209h229v-209h-229z" />
<glyph unicode="j" horiz-adv-x="454" d="M0 -139h39q86 0 86 86v1153h229v-1163q0 -285 -266 -285h-88v209zM125 1270v209h229v-209h-229z" />
<glyph unicode="k" d="M111 0v1479h229v-766h4l252 389h246l-240 -348l266 -754h-231l-184 547h-4l-109 -162v-385h-229z" />
<glyph unicode="l" horiz-adv-x="454" d="M113 0v1479h229v-1479h-229z" />
<glyph unicode="m" horiz-adv-x="1366" d="M111 0v1102h217v-111q109 92 149 111q47 20 105 20q82 0 120.5 -28.5t79.5 -102.5q80 78 135.5 104.5t120.5 26.5q106 0 160.5 -61.5t54.5 -169.5v-891h-229v854q0 80 -82 80q-53 0 -145 -70v-864h-230v854q0 80 -80 80q-51 0 -147 -70v-864h-229z" />
<glyph unicode="n" d="M111 0v1102h217v-111q66 55 89 73.5t74.5 38t114.5 19.5q90 0 141.5 -61.5t51.5 -169.5v-891h-230v854q0 80 -82 80q-51 0 -147 -70v-864h-229z" />
<glyph unicode="o" d="M98 389v324q0 410 356 410t357 -410v-324q0 -410 -356.5 -410t-356.5 410zM328 348q0 -180 127 -180t127 180v406q0 180 -127 180t-127 -180v-406z" />
<glyph unicode="p" d="M111 -348v1450h217v-115h4q59 76 110.5 105.5t135.5 29.5q109 0 171 -79.5t62 -227.5v-528q0 -147 -62.5 -227t-170.5 -80q-47 0 -89.5 16t-67 33.5t-81.5 64.5v-442h-229zM340 225q78 -57 131 -57q111 0 111 178v410q0 178 -111 178q-53 0 -131 -57v-652z" />
<glyph unicode="q" d="M98 287v528q0 147 62.5 227t171.5 80q84 0 135 -29.5t111 -105.5h4v115h217v-1450h-230v442q-57 -47 -81.5 -64.5t-66.5 -33.5t-89 -16q-109 0 -171.5 79.5t-62.5 227.5zM328 346q0 -178 110 -178q53 0 131 57v652q-78 57 -131 57q-111 0 -110 -178v-410z" />
<glyph unicode="r" horiz-adv-x="681" d="M111 0v1102h219v-129h4q87 149 258 149h2h47v-239q-86 22 -142 22h-5q-63 0 -108.5 -39t-45.5 -108v-758h-229z" />
<glyph unicode="s" horiz-adv-x="796" d="M55 287l201 55q27 -174 152 -174q45 0 73.5 25.5t28.5 70.5q0 51 -44 101.5t-107.5 94.5t-127 93t-107.5 119.5t-44 154.5q0 129 88 212t219 83t220 -80t116 -213l-195 -32q-25 137 -131 137q-45 0 -72.5 -22.5t-27.5 -65.5q0 -47 44 -93t107.5 -89t127 -93.5t107.5 -127 t44 -167.5q0 -143 -88 -219.5t-233 -76.5q-295 0 -351 307z" />
<glyph unicode="t" horiz-adv-x="569" d="M20 913v189h127v297h230v-297h153v-189h-153v-634q0 -90 78 -91h75v-196q-47 -12 -114 -12q-268 0 -269 247v686h-127z" />
<glyph unicode="u" d="M111 211v891h229v-854q0 -80 82 -80q51 0 147 70v864h230v-1102h-217v111q-66 -55 -89.5 -74t-74.5 -38t-115 -19q-90 0 -141 61t-51 170z" />
<glyph unicode="v" horiz-adv-x="796" d="M20 1102h234l141 -737h4l144 737h233l-266 -1102h-223z" />
<glyph unicode="w" horiz-adv-x="1138" d="M12 1102h221l101 -688h4l145 686h170l123 -686h4l125 688h221l-254 -1102h-184l-125 696h-4l-149 -696h-185z" />
<glyph unicode="x" horiz-adv-x="796" d="M25 0l245 584l-227 518h238l116 -307l123 307h238l-238 -514l250 -588h-238l-133 373h-4l-133 -373h-237z" />
<glyph unicode="y" horiz-adv-x="796" d="M20 1102h234l147 -705h5l139 705h231l-289 -1184q-37 -147 -108.5 -205.5t-204.5 -58.5h-96v188h55q84 0 118 43t34 135q0 53 -25 146z" />
<glyph unicode="z" horiz-adv-x="796" d="M61 0v188l420 725h-391v189h645v-189l-428 -725h428v-188h-674z" />
<glyph unicode="{" horiz-adv-x="569" d="M0 606v119q49 0 82 41t33 123v414q0 102 47 149t166 47h225v-98h-168q-74 0 -74 -103v-397q0 -111 -52 -169t-103 -64v-6q53 -8 104 -65.5t51 -174.5v-397q0 -102 74 -103h168v-98h-225q-119 0 -166 47t-47 149v422q0 82 -33 123t-82 41z" />
<glyph unicode="|" horiz-adv-x="454" d="M127 -20v1519h201v-1519h-201z" />
<glyph unicode="}" horiz-adv-x="569" d="M16 -78h168q74 0 74 103v397q0 111 52 169t104 64v7q-53 8 -104.5 65t-51.5 174v397q0 102 -74 103h-168v98h226q119 0 166 -47t47 -149v-422q0 -82 32.5 -123t81.5 -41v-119q-49 0 -81.5 -41t-32.5 -123v-414q0 -102 -47.5 -149t-165.5 -47h-226v98z" />
<glyph unicode="~" horiz-adv-x="1228" d="M125 526q47 53 70.5 77t81 53.5t120.5 29.5q80 0 228 -65q10 -4 35.5 -15.5t37 -16.5t33 -13.5t34.5 -11.5t32.5 -6t36.5 -3q39 0 74.5 22.5t55 44t50.5 64.5l90 -176q-12 -10 -44 -42t-50.5 -46t-48 -34.5t-61.5 -29t-69 -8.5q-86 0 -208 68q-111 63 -236 63 q-104 0 -172 -131z" />
<glyph unicode="&#xa1;" horiz-adv-x="569" d="M156 -377l45 1045h168l45 -1045h-258zM164 860v242h242v-242h-242z" />
<glyph unicode="&#xa2;" d="M78 410v323q0 410 379 410q25 0 65 -4l72 262h151l-83 -307q155 -93 159 -349h-213v29q0 78 -30 121l-187 -690q25 -16 66 -17q145 0 145 181v69h229v-28q0 -410 -374 -410q-53 0 -88 8l-68 -246h-154l82 297q-152 94 -151 351zM307 369q0 -10 12 -66h5l165 649 q-10 2 -32 2q-68 0 -109 -44t-41 -136v-405z" />
<glyph unicode="&#xa3;" d="M72 -20v219q94 31 125.5 128t31.5 326h-157v172h129q-57 250 -58 336q0 162 84 250t254 88q168 0 249 -101.5t81 -312.5h-209q-6 133 -33.5 179.5t-93.5 46.5q-102 0 -102 -131q0 -53 9 -108.5t25.5 -128.5t24.5 -118h203v-172h-184q-4 -164 -16.5 -252t-55.5 -163 q70 -49 143 -50q104 0 105 220h204v-121q0 -145 -71.5 -226t-200.5 -81q-139 0 -262 98q-129 -88 -225 -98z" />
<glyph unicode="&#xa4;" d="M16 408l97 94q-76 104 -76 237t76 238l-97 94l103 109l96 -99q106 74 240 74q131 0 237 -74l99 99l102 -109l-96 -94q76 -104 75.5 -237.5t-75.5 -237.5l96 -94l-102 -109l-99 98q-106 -74 -237 -73q-133 0 -240 73l-96 -98zM225 739.5q0 -100.5 66.5 -170t163 -69.5 t163 69.5t66.5 170t-66.5 170t-163 69.5t-163 -69.5t-66.5 -170z" />
<glyph unicode="&#xa5;" d="M45 1479h205l207 -613h4l198 613h205l-186 -521h178v-172h-248l-55 -163h303v-172h-303v-451h-197v451h-303v172h303l-55 163h-248v172h178z" />
<glyph unicode="&#xa6;" horiz-adv-x="454" d="M127 -20v626h201v-626h-201zM127 872v627h201v-627h-201z" />
<glyph unicode="&#xa7;" horiz-adv-x="1024" d="M106 801q0 100 62.5 161.5t165.5 71.5q-102 78 -103 215q0 113 76 181.5t219 68.5q90 0 168 -46t129 -118l-141 -102q-4 4 -15.5 17.5t-16.5 18.5l-17 17t-19.5 17.5t-18.5 13.5t-21.5 12t-22.5 7t-25 3q-106 0 -106 -94q0 -47 51 -109.5t124 -125t146.5 -130t125 -149.5 t51.5 -158q0 -102 -59.5 -170.5t-162.5 -70.5q102 -98 103 -221q0 -121 -76 -198t-195 -77q-104 0 -182 41t-166 125l150 117q66 -123 162 -123q119 0 118 102q0 49 -52 115t-126 134.5t-147.5 140t-126 155.5t-52.5 158zM295 817q0 -49 142.5 -201.5t197.5 -152.5 q39 0 66.5 26.5t27.5 63.5q0 47 -140 198.5t-204 151.5q-41 0 -65.5 -25.5t-24.5 -60.5z" />
<glyph unicode="&#xa8;" horiz-adv-x="454" d="M-45 1257v222h221v-222h-221zM279 1257v222h221v-222h-221z" />
<glyph unicode="&#xa9;" horiz-adv-x="1638" d="M41 739q0 336 229.5 548t549 212t548.5 -212t229 -548t-229 -547.5t-548.5 -211.5t-549 211.5t-229.5 547.5zM242 739q0 -260 165.5 -430t411.5 -170q244 0 411 170t167 430t-167 430t-411 170q-246 0 -411.5 -170t-165.5 -430zM414 743q0 199 116.5 326t313.5 127 q143 0 244.5 -82t123.5 -233h-159q-14 76 -71.5 115.5t-137.5 39.5q-113 0 -175.5 -78.5t-62.5 -209.5q0 -125 67.5 -211t174.5 -86q86 0 141.5 42.5t63.5 118.5h166q-25 -150 -128.5 -235.5t-242.5 -85.5q-193 0 -313.5 129t-120.5 323z" />
<glyph unicode="&#xaa;" horiz-adv-x="544" d="M29 961q0 104 73.5 172.5t233.5 128.5v38q0 41 -16.5 58.5t-53.5 17.5q-74 0 -78 -84h-159q6 98 72.5 152.5t177.5 54.5q217 0 217 -180v-426q0 -12 10 -70h-144q0 8 -4 22.5t-4 20.5q-74 -55 -174 -55q-74 0 -112.5 41t-38.5 109zM188 987q0 -53 60 -53q61 0 88 61v150 q-90 -45 -119 -79t-29 -79z" />
<glyph unicode="&#xab;" horiz-adv-x="1024" d="M129 553l236 313h202l-239 -315l233 -315h-196zM471 553l236 313h202l-239 -315l233 -315h-196z" />
<glyph unicode="&#xac;" horiz-adv-x="1228" d="M96 631v200h1037v-628h-201v428h-836z" />
<glyph unicode="&#xad;" horiz-adv-x="681" d="M90 457v188h502v-188h-502z" />
<glyph unicode="&#xae;" horiz-adv-x="1638" d="M41 739q0 336 229.5 548t549 212t548.5 -212t229 -548t-229 -547.5t-548.5 -211.5t-549 211.5t-229.5 547.5zM242 739q0 -260 165.5 -430t411.5 -170q244 0 411 170t167 430t-167 430t-411 170q-246 0 -411.5 -170t-165.5 -430zM516 315v850h322q166 0 247.5 -58 t81.5 -194q0 -109 -56 -164t-148 -63l204 -371h-186l-190 363h-107v-363h-168zM684 809h145q90 0 128 28.5t38 90.5q0 59 -40 82.5t-134 23.5h-137v-225z" />
<glyph unicode="&#xaf;" horiz-adv-x="454" d="M-74 1305v131h602v-131h-602z" />
<glyph unicode="&#xb0;" horiz-adv-x="819" d="M115 1206q0 123 85 208t210 85t210 -85t85 -208t-85 -208t-210 -85t-210 85t-85 208zM242 1206q0 -76 47 -127t120.5 -51t121 51t47.5 127t-47.5 127t-121 51t-120.5 -51t-47 -127z" />
<glyph unicode="&#xb1;" horiz-adv-x="1228" d="M96 0v201h1037v-201h-1037zM96 555v201h418v280h201v-280h418v-201h-418v-281h-201v281h-418z" />
<glyph unicode="&#xb2;" horiz-adv-x="544" d="M29 598v166q156 178 227.5 299t71.5 215q0 57 -58 57q-29 0 -47 -20.5t-18 -48.5v-39h-176v41q0 98 74.5 164.5t189.5 66.5q98 0 160.5 -57.5t62.5 -138.5q0 -125 -52 -243t-212 -298h258v-164h-481z" />
<glyph unicode="&#xb3;" horiz-adv-x="544" d="M41 805v51h176v-43q0 -63 55.5 -63t55.5 79v52q0 68 -26 89t-91 21v152q61 0 87 23.5t26 95.5q0 82 -54 81q-51 0 -51 -57v-35h-172v41q0 92 62.5 149.5t169.5 57.5q113 0 173 -65.5t60 -161.5q0 -80 -20.5 -126t-75.5 -77q66 -35 87 -81t21 -140q0 -133 -61.5 -197.5 t-194.5 -64.5q-227 0 -227 219z" />
<glyph unicode="&#xb4;" horiz-adv-x="454" d="M82 1233l162 295h276l-268 -295h-170z" />
<glyph unicode="&#xb5;" d="M111 -348v1450h229v-854q0 -80 82 -80q51 0 147 70v864h230v-1102h-217v111q-59 -51 -81 -67.5t-66 -38t-95 -25.5v-328h-229z" />
<glyph unicode="&#xb6;" horiz-adv-x="1024" d="M12 1094q0 385 426 385h590v-131h-115v-1512h-168v1512h-178v-1512h-168v885q-176 0 -281.5 104.5t-105.5 268.5z" />
<glyph unicode="&#xb7;" horiz-adv-x="454" d="M90 518q0 57 40 97t97.5 40t97.5 -40t40 -97t-40 -97t-98 -40q-59 0 -98 39t-39 98z" />
<glyph unicode="&#xb8;" horiz-adv-x="454" d="M-18 -436l34 102q70 -35 134 -35q53 0 86.5 25t33.5 59q0 57 -64.5 69.5t-105.5 -9.5l-45 37l140 188h98l-84 -123q29 4 43 4q76 -4 131 -44t55 -111q0 -94 -74.5 -151.5t-179.5 -57.5q-102 0 -202 47z" />
<glyph unicode="&#xb9;" horiz-adv-x="544" d="M86 1284v98q113 43 203 117h100v-901h-196v686h-107z" />
<glyph unicode="&#xba;" horiz-adv-x="544" d="M41 1059v194q0 246 231.5 246t231.5 -246v-194q0 -248 -231.5 -248t-231.5 248zM209 1042q0 -100 63.5 -100t63.5 100v226q0 100 -63.5 100t-63.5 -100v-226z" />
<glyph unicode="&#xbb;" horiz-adv-x="1024" d="M115 866h202l236 -313l-236 -317h-196l233 315zM457 866h202l236 -313l-236 -317h-196l233 315z" />
<glyph unicode="&#xbc;" horiz-adv-x="1363" d="M102 1284v98q109 43 203 115h101v-899h-197v686h-107zM152 -20l839 1519h187l-840 -1519h-186zM758 205v164l264 518h195v-527h77v-155h-77v-205h-168v205h-291zM918 360h131v273h-5z" />
<glyph unicode="&#xbd;" horiz-adv-x="1363" d="M98 1284v98q113 43 203 117h100v-901h-196v686h-107zM135 -20l840 1519h186l-839 -1519h-187zM815 0v166q156 178 227.5 299t71.5 215q0 57 -57 57q-29 0 -47.5 -20.5t-18.5 -48.5v-39h-176v41q0 98 75 164.5t189 66.5q98 0 161 -57.5t63 -138.5q0 -125 -52.5 -243 t-212.5 -298h258v-164h-481z" />
<glyph unicode="&#xbe;" horiz-adv-x="1363" d="M61 805v51h177v-43q0 -63 55 -63t55 79v52q0 68 -25.5 89t-91.5 21v152q61 0 87 23.5t26 95.5q0 82 -53 81q-51 0 -51 -57v-35h-172v41q0 92 62.5 149.5t168.5 57.5q113 0 173 -65.5t60 -161.5q0 -80 -20 -126t-76 -77q66 -35 87.5 -81t21.5 -140q0 -133 -61.5 -197.5 t-194.5 -64.5q-227 0 -228 219zM190 -20l840 1519h187l-840 -1519h-187zM758 205v164l264 518h195v-527h77v-155h-77v-205h-168v205h-291zM918 360h131v273h-5z" />
<glyph unicode="&#xbf;" horiz-adv-x="796" d="M66 -123q0 70 22.5 134.5t39.5 91t65 92.5q41 55 63.5 94t42.5 110.5t20 157.5v111h197v-172q0 -158 -106 -355q-6 -12 -25.5 -47t-27 -48t-20.5 -41t-18.5 -44t-10.5 -37.5t-5 -40.5q0 -37 24.5 -64.5t61.5 -27.5q104 0 146 156l196 -74q-49 -137 -138 -203.5 t-233 -66.5q-119 0 -206.5 78.5t-87.5 195.5zM301 860v242h242v-242h-242z" />
<glyph unicode="&#xc0;" d="M25 0l272 1479h315l273 -1479h-246l-45 328h-279l-45 -328h-245zM162 1851h276l162 -295h-170zM352 549h205l-100 635h-4z" />
<glyph unicode="&#xc1;" d="M25 0l272 1479h315l273 -1479h-246l-45 328h-279l-45 -328h-245zM309 1556l162 295h277l-269 -295h-170zM352 549h205l-100 635h-4z" />
<glyph unicode="&#xc2;" d="M25 0l272 1479h315l273 -1479h-246l-45 328h-279l-45 -328h-245zM145 1556l197 295h225l197 -295h-189l-120 183l-121 -183h-189zM352 549h205l-100 635h-4z" />
<glyph unicode="&#xc3;" d="M25 0l272 1479h315l273 -1479h-246l-45 328h-279l-45 -328h-245zM121 1573q47 242 211 242q47 0 133 -39q90 -41 123 -41q45 0 64.5 21.5t21.5 68.5h114q-47 -242 -210 -242q-51 0 -134 41q-78 39 -123 39t-64 -21.5t-21 -68.5h-115zM352 549h205l-100 635h-4z" />
<glyph unicode="&#xc4;" d="M25 0l272 1479h315l273 -1479h-246l-45 328h-279l-45 -328h-245zM182 1581v221h221v-221h-221zM352 549h205l-100 635h-4zM506 1581v221h221v-221h-221z" />
<glyph unicode="&#xc5;" d="M25 0l272 1479h315l273 -1479h-246l-45 328h-279l-45 -328h-245zM246 1765q0 86 61.5 147.5t147.5 61.5t147.5 -61.5t61.5 -147.5t-61.5 -147.5t-147.5 -61.5t-147.5 61.5t-61.5 147.5zM348 1765q0 -45 31 -75.5t76 -30.5t75.5 30.5t30.5 75.5t-30.5 76t-75.5 31t-76 -31 t-31 -76zM352 549h205l-100 635h-4z" />
<glyph unicode="&#xc6;" horiz-adv-x="1478" d="M25 0l477 1479h870v-222h-434v-380h336v-222h-336v-434h463v-221h-717v348h-295l-106 -348h-258zM459 569h225v725h-4z" />
<glyph unicode="&#xc7;" horiz-adv-x="1024" d="M123 358v762q0 166 99.5 272.5t289.5 106.5q182 0 279.5 -114.5t97.5 -290.5v-109h-254v115q0 88 -35 133t-88 45q-74 0 -104.5 -39t-30.5 -125v-749q0 -86 30.5 -125t104.5 -39q68 0 95.5 36.5t27.5 112.5v178h254v-170q0 -166 -97.5 -272t-279.5 -106 q-190 0 -289.5 106.5t-99.5 271.5zM266 -436l35 102q70 -35 133 -35q53 0 87 25t34 59q0 57 -64.5 69.5t-105.5 -9.5l-45 37l139 188h99l-84 -123q29 4 43 4q76 -4 131 -44t55 -111q0 -94 -75 -151.5t-179 -57.5q-103 0 -203 47z" />
<glyph unicode="&#xc8;" d="M123 0v1479h680v-222h-426v-380h328v-222h-328v-434h454v-221h-708zM186 1851h277l162 -295h-170z" />
<glyph unicode="&#xc9;" d="M123 0v1479h680v-222h-426v-380h328v-222h-328v-434h454v-221h-708zM334 1556l162 295h276l-268 -295h-170z" />
<glyph unicode="&#xca;" d="M123 0v1479h680v-222h-426v-380h328v-222h-328v-434h454v-221h-708zM170 1556l197 295h225l196 -295h-188l-121 183l-121 -183h-188z" />
<glyph unicode="&#xcb;" d="M123 0v1479h680v-222h-426v-380h328v-222h-328v-434h454v-221h-708zM207 1581v221h221v-221h-221zM530 1581v221h222v-221h-222z" />
<glyph unicode="&#xcc;" horiz-adv-x="569" d="M-8 1851h276l162 -295h-170zM158 0v1479h254v-1479h-254z" />
<glyph unicode="&#xcd;" horiz-adv-x="569" d="M139 1556l162 295h277l-269 -295h-170zM158 0v1479h254v-1479h-254z" />
<glyph unicode="&#xce;" horiz-adv-x="569" d="M-25 1556l197 295h225l197 -295h-188l-121 183l-121 -183h-189zM158 0v1479h254v-1479h-254z" />
<glyph unicode="&#xcf;" horiz-adv-x="569" d="M12 1581v221h221v-221h-221zM158 0v1479h254v-1479h-254zM336 1581v221h221v-221h-221z" />
<glyph unicode="&#xd0;" horiz-adv-x="1024" d="M41 655v222h82v602h377q401 0 401 -447v-586q0 -446 -401 -446h-377v655h-82zM377 209h88q102 0 142 45t40 162v647q0 117 -40 162t-142 45h-88v-393h151v-222h-151v-446z" />
<glyph unicode="&#xd1;" horiz-adv-x="1024" d="M123 0v1479h235l310 -846h4v846h229v-1479h-221l-324 924h-4v-924h-229zM178 1573q47 242 211 242q47 0 133 -39q90 -41 123 -41q45 0 64.5 21.5t21.5 68.5h115q-47 -242 -211 -242q-51 0 -133 41q-78 39 -123 39t-64.5 -21.5t-21.5 -68.5h-115z" />
<glyph unicode="&#xd2;" horiz-adv-x="1024" d="M123 358v762q0 166 99.5 272.5t289.5 106.5t289.5 -106.5t99.5 -272.5v-762q0 -166 -99.5 -272t-289.5 -106t-289.5 106t-99.5 272zM219 1851h277l161 -295h-170zM377 365q0 -86 30.5 -125t104.5 -39t104.5 39t30.5 125v749q0 86 -30.5 125t-104.5 39t-104.5 -39 t-30.5 -125v-749z" />
<glyph unicode="&#xd3;" horiz-adv-x="1024" d="M123 358v762q0 166 99.5 272.5t289.5 106.5t289.5 -106.5t99.5 -272.5v-762q0 -166 -99.5 -272t-289.5 -106t-289.5 106t-99.5 272zM367 1556l161 295h277l-268 -295h-170zM377 365q0 -86 30.5 -125t104.5 -39t104.5 39t30.5 125v749q0 86 -30.5 125t-104.5 39 t-104.5 -39t-30.5 -125v-749z" />
<glyph unicode="&#xd4;" horiz-adv-x="1024" d="M123 358v762q0 166 99.5 272.5t289.5 106.5t289.5 -106.5t99.5 -272.5v-762q0 -166 -99.5 -272t-289.5 -106t-289.5 106t-99.5 272zM203 1556l196 295h226l196 -295h-188l-121 183l-121 -183h-188zM377 365q0 -86 30.5 -125t104.5 -39t104.5 39t30.5 125v749 q0 86 -30.5 125t-104.5 39t-104.5 -39t-30.5 -125v-749z" />
<glyph unicode="&#xd5;" horiz-adv-x="1024" d="M123 358v762q0 166 99.5 272.5t289.5 106.5t289.5 -106.5t99.5 -272.5v-762q0 -166 -99.5 -272t-289.5 -106t-289.5 106t-99.5 272zM178 1573q47 242 211 242q47 0 133 -39q90 -41 123 -41q45 0 64.5 21.5t21.5 68.5h115q-47 -242 -211 -242q-51 0 -133 41 q-78 39 -123 39t-64.5 -21.5t-21.5 -68.5h-115zM377 365q0 -86 30.5 -125t104.5 -39t104.5 39t30.5 125v749q0 86 -30.5 125t-104.5 39t-104.5 -39t-30.5 -125v-749z" />
<glyph unicode="&#xd6;" horiz-adv-x="1024" d="M123 358v762q0 166 99.5 272.5t289.5 106.5t289.5 -106.5t99.5 -272.5v-762q0 -166 -99.5 -272t-289.5 -106t-289.5 106t-99.5 272zM240 1581v221h221v-221h-221zM377 365q0 -86 30.5 -125t104.5 -39t104.5 39t30.5 125v749q0 86 -30.5 125t-104.5 39t-104.5 -39 t-30.5 -125v-749zM563 1581v221h221v-221h-221z" />
<glyph unicode="&#xd7;" horiz-adv-x="1228" d="M96 143l377 375l-377 377l142 141l376 -377l377 377l142 -141l-375 -377l375 -375l-142 -143l-377 377l-376 -377z" />
<glyph unicode="&#xd8;" horiz-adv-x="1024" d="M57 -246l142 361q-76 96 -76 243v762q0 166 99.5 272.5t289.5 106.5q125 0 211 -49l78 197h166l-121 -312q55 -90 55 -215v-762q0 -166 -99.5 -272t-289.5 -106q-104 -1 -184 34l-103 -260h-168zM377 526h4l258 666q-20 86 -127 86q-74 0 -104.5 -39t-30.5 -125v-588z M403 248q25 -47 109 -47q74 0 104.5 39t30.5 125v503h-4z" />
<glyph unicode="&#xd9;" horiz-adv-x="1024" d="M123 373v1106h254v-1117q0 -162 135 -161.5t135 161.5v1117h254v-1106q0 -188 -103.5 -290.5t-285.5 -102.5t-285.5 102.5t-103.5 290.5zM219 1851h277l161 -295h-170z" />
<glyph unicode="&#xda;" horiz-adv-x="1024" d="M123 373v1106h254v-1117q0 -162 135 -161.5t135 161.5v1117h254v-1106q0 -188 -103.5 -290.5t-285.5 -102.5t-285.5 102.5t-103.5 290.5zM367 1556l161 295h277l-268 -295h-170z" />
<glyph unicode="&#xdb;" horiz-adv-x="1024" d="M123 373v1106h254v-1117q0 -162 135 -161.5t135 161.5v1117h254v-1106q0 -188 -103.5 -290.5t-285.5 -102.5t-285.5 102.5t-103.5 290.5zM203 1556l196 295h226l196 -295h-188l-121 183l-121 -183h-188z" />
<glyph unicode="&#xdc;" horiz-adv-x="1024" d="M123 373v1106h254v-1117q0 -162 135 -161.5t135 161.5v1117h254v-1106q0 -188 -103.5 -290.5t-285.5 -102.5t-285.5 102.5t-103.5 290.5zM240 1581v221h221v-221h-221zM563 1581v221h221v-221h-221z" />
<glyph unicode="&#xdd;" d="M20 1479h259l178 -564h4l170 564h258l-307 -865v-614h-254v614zM309 1556l162 295h277l-269 -295h-170z" />
<glyph unicode="&#xde;" horiz-adv-x="1024" d="M123 0v1479h254v-287h110q240 0 349.5 -101.5t109.5 -335t-109.5 -335t-349.5 -101.5h-110v-319h-254zM377 528h98q125 0 171 48.5t46 179.5t-46 179t-171 48h-98v-455z" />
<glyph unicode="&#xdf;" d="M111 0v1106q0 190 84 287.5t241 97.5q193 0 270.5 -107.5t77.5 -296.5q0 -254 -149 -274v-4q98 -31 143 -124t45 -267q0 -231 -58 -324.5t-179 -93.5h-135v195q25 -6 55 -7q45 0 62.5 33t17.5 105v206q0 160 -127 160v189q59 10 77.5 37.5t18.5 109.5v143q0 131 -106 132 q-57 0 -83 -36t-26 -116v-1151h-229z" />
<glyph unicode="&#xe0;" d="M70 227q0 176 116.5 289t372.5 211v66q0 141 -113 141q-74 0 -100.5 -39t-30.5 -117h-229q8 166 106.5 255t262.5 89q162 0 247.5 -74.5t85.5 -224.5v-706q0 -31 15 -117h-219q-2 16 -7.5 45t-5.5 41q-131 -106 -268 -106q-113 0 -173 68.5t-60 178.5zM162 1528h276 l162 -295h-170zM299 268q0 -100 107 -100q81 0 153 102v289q-150 -86 -205 -150.5t-55 -140.5z" />
<glyph unicode="&#xe1;" d="M70 227q0 176 116.5 289t372.5 211v66q0 141 -113 141q-74 0 -100.5 -39t-30.5 -117h-229q8 166 106.5 255t262.5 89q162 0 247.5 -74.5t85.5 -224.5v-706q0 -31 15 -117h-219q-2 16 -7.5 45t-5.5 41q-131 -106 -268 -106q-113 0 -173 68.5t-60 178.5zM299 268 q0 -100 107 -100q81 0 153 102v289q-150 -86 -205 -150.5t-55 -140.5zM309 1233l162 295h277l-269 -295h-170z" />
<glyph unicode="&#xe2;" d="M70 227q0 176 116.5 289t372.5 211v66q0 141 -113 141q-74 0 -100.5 -39t-30.5 -117h-229q8 166 106.5 255t262.5 89q162 0 247.5 -74.5t85.5 -224.5v-706q0 -31 15 -117h-219q-2 16 -7.5 45t-5.5 41q-131 -106 -268 -106q-113 0 -173 68.5t-60 178.5zM145 1233l197 295 h225l197 -295h-189l-120 182l-121 -182h-189zM299 268q0 -100 107 -100q81 0 153 102v289q-150 -86 -205 -150.5t-55 -140.5z" />
<glyph unicode="&#xe3;" d="M70 227q0 176 116.5 289t372.5 211v66q0 141 -113 141q-74 0 -100.5 -39t-30.5 -117h-229q8 166 106.5 255t262.5 89q162 0 247.5 -74.5t85.5 -224.5v-706q0 -31 15 -117h-219q-2 16 -7.5 45t-5.5 41q-131 -106 -268 -106q-113 0 -173 68.5t-60 178.5zM121 1249 q47 242 211 242q47 0 133 -39q90 -41 123 -41q45 0 64.5 21.5t21.5 68.5h114q-47 -242 -210 -241q-51 0 -134 40q-78 39 -123 39t-64 -21.5t-21 -68.5h-115zM299 268q0 -100 107 -100q81 0 153 102v289q-150 -86 -205 -150.5t-55 -140.5z" />
<glyph unicode="&#xe4;" d="M70 227q0 176 116.5 289t372.5 211v66q0 141 -113 141q-74 0 -100.5 -39t-30.5 -117h-229q8 166 106.5 255t262.5 89q162 0 247.5 -74.5t85.5 -224.5v-706q0 -31 15 -117h-219q-2 16 -7.5 45t-5.5 41q-131 -106 -268 -106q-113 0 -173 68.5t-60 178.5zM182 1257v222h221 v-222h-221zM299 268q0 -100 107 -100q81 0 153 102v289q-150 -86 -205 -150.5t-55 -140.5zM506 1257v222h221v-222h-221z" />
<glyph unicode="&#xe5;" d="M70 227q0 176 116.5 289t372.5 211v66q0 141 -113 141q-74 0 -100.5 -39t-30.5 -117h-229q8 166 106.5 255t262.5 89q162 0 247.5 -74.5t85.5 -224.5v-706q0 -31 15 -117h-219q-2 16 -7.5 45t-5.5 41q-131 -106 -268 -106q-113 0 -173 68.5t-60 178.5zM246 1442 q0 86 61.5 147.5t147.5 61.5t147.5 -61.5t61.5 -147.5t-61.5 -147.5t-147.5 -61.5t-147.5 61.5t-61.5 147.5zM299 268q0 -100 107 -100q81 0 153 102v289q-150 -86 -205 -150.5t-55 -140.5zM348 1442q0 -45 31 -76t76 -31t75.5 31t30.5 76t-30.5 75.5t-75.5 30.5t-76 -30.5 t-31 -75.5z" />
<glyph unicode="&#xe6;" horiz-adv-x="1366" d="M70 227q0 176 115.5 289t371.5 211v66q0 141 -111 141q-74 0 -100.5 -39t-30.5 -117h-229q8 164 101.5 254t234.5 90q178 0 264 -102q80 102 244 102q338 0 338 -409v-205h-482v-160q0 -180 125 -180q127 0 127 180v25h230q-6 -393 -357 -393q-193 0 -278 143 q-162 -143 -305 -143q-129 0 -193.5 67.5t-64.5 179.5zM299 268q0 -100 107 -100q83 0 151 102v289q-150 -86 -204 -150.5t-54 -140.5zM786 696h252v58q0 180 -127 180q-125 0 -125 -180v-58z" />
<glyph unicode="&#xe7;" d="M98 389v324q0 410 357 409q350 0 356 -397h-229v29q0 180 -127 180t-127 -180v-406q0 -180 127 -180t127 180v70h229v-29q0 -410 -356.5 -409.5t-356.5 409.5zM209 -436l35 102q70 -35 133 -35q53 0 87 25t34 59q0 57 -64.5 69.5t-105.5 -9.5l-45 37l139 188h98l-84 -123 q29 4 43 4q76 -4 131.5 -44t55.5 -111q0 -94 -75 -151.5t-179 -57.5q-103 0 -203 47z" />
<glyph unicode="&#xe8;" d="M98 389v324q0 410 356.5 410t356.5 -410v-205h-483v-160q0 -180 127 -180t127 180v25h229q-6 -393 -356 -393q-356 0 -357 409zM162 1528h276l162 -295h-170zM328 696h254v58q0 180 -127 180t-127 -180v-58z" />
<glyph unicode="&#xe9;" d="M98 389v324q0 410 356.5 410t356.5 -410v-205h-483v-160q0 -180 127 -180t127 180v25h229q-6 -393 -356 -393q-356 0 -357 409zM309 1233l162 295h277l-269 -295h-170zM328 696h254v58q0 180 -127 180t-127 -180v-58z" />
<glyph unicode="&#xea;" d="M98 389v324q0 410 356.5 410t356.5 -410v-205h-483v-160q0 -180 127 -180t127 180v25h229q-6 -393 -356 -393q-356 0 -357 409zM145 1233l197 295h225l197 -295h-189l-120 182l-121 -182h-189zM328 696h254v58q0 180 -127 180t-127 -180v-58z" />
<glyph unicode="&#xeb;" d="M98 389v324q0 410 356.5 410t356.5 -410v-205h-483v-160q0 -180 127 -180t127 180v25h229q-6 -393 -356 -393q-356 0 -357 409zM182 1257v222h221v-222h-221zM328 696h254v58q0 180 -127 180t-127 -180v-58zM506 1257v222h221v-222h-221z" />
<glyph unicode="&#xec;" horiz-adv-x="454" d="M-66 1528h277l162 -295h-170zM113 0v1102h229v-1102h-229z" />
<glyph unicode="&#xed;" horiz-adv-x="454" d="M82 1233l162 295h276l-268 -295h-170zM113 0v1102h229v-1102h-229z" />
<glyph unicode="&#xee;" horiz-adv-x="454" d="M-82 1233l197 295h225l197 -295h-189l-121 182l-121 -182h-188zM113 0v1102h229v-1102h-229z" />
<glyph unicode="&#xef;" horiz-adv-x="454" d="M-45 1257v222h221v-222h-221zM113 0v1102h229v-1102h-229zM279 1257v222h221v-222h-221z" />
<glyph unicode="&#xf0;" d="M98 356v287q0 377 357 377q18 0 75 -4q-6 68 -59 164l-215 -82l-55 147l190 72q-47 70 -96 113l176 49q51 -37 96 -95l224 86l61 -143l-195 -76q154 -272 154 -608v-287q0 -377 -356.5 -376.5t-356.5 376.5zM328 334q0 -166 127 -166t127 166v332q0 166 -127 165.5 t-127 -165.5v-332z" />
<glyph unicode="&#xf1;" d="M111 0v1102h217v-111q66 55 89 73.5t74.5 38t114.5 19.5q90 0 141.5 -61.5t51.5 -169.5v-891h-230v854q0 80 -82 80q-51 0 -147 -70v-864h-229zM121 1249q47 242 211 242q47 0 133 -39q90 -41 123 -41q45 0 64.5 21.5t21.5 68.5h114q-47 -242 -210 -241q-51 0 -134 40 q-78 39 -123 39t-64 -21.5t-21 -68.5h-115z" />
<glyph unicode="&#xf2;" d="M98 389v324q0 410 356.5 409.5t356.5 -409.5v-324q0 -410 -356.5 -410t-356.5 410zM162 1528h276l162 -295h-170zM328 348q0 -180 127 -180t127 180v406q0 180 -127 180t-127 -180v-406z" />
<glyph unicode="&#xf3;" d="M98 389v324q0 410 356.5 409.5t356.5 -409.5v-324q0 -410 -356.5 -410t-356.5 410zM309 1233l162 295h277l-269 -295h-170zM328 348q0 -180 127 -180t127 180v406q0 180 -127 180t-127 -180v-406z" />
<glyph unicode="&#xf4;" d="M98 389v324q0 410 356.5 409.5t356.5 -409.5v-324q0 -410 -356.5 -410t-356.5 410zM145 1233l197 295h225l197 -295h-189l-120 182l-121 -182h-189zM328 348q0 -180 127 -180t127 180v406q0 180 -127 180t-127 -180v-406z" />
<glyph unicode="&#xf5;" d="M98 389v324q0 410 356.5 409.5t356.5 -409.5v-324q0 -410 -356.5 -410t-356.5 410zM121 1249q47 242 211 242q47 0 133 -39q90 -41 123 -41q45 0 64.5 21.5t21.5 68.5h114q-47 -242 -210 -241q-51 0 -134 40q-78 39 -123 39t-64 -21.5t-21 -68.5h-115zM328 348 q0 -180 127 -180t127 180v406q0 180 -127 180t-127 -180v-406z" />
<glyph unicode="&#xf6;" d="M98 389v324q0 410 356.5 409.5t356.5 -409.5v-324q0 -410 -356.5 -410t-356.5 410zM182 1257v222h221v-222h-221zM328 348q0 -180 127 -180t127 180v406q0 180 -127 180t-127 -180v-406zM506 1257v222h221v-222h-221z" />
<glyph unicode="&#xf7;" horiz-adv-x="1228" d="M96 418v200h1037v-200h-1037zM451 94.5q0 67.5 48 115.5t115.5 48t115.5 -48t48 -115.5t-48 -116t-115.5 -48.5t-115.5 48.5t-48 116zM451 942q0 68 48 116t115.5 48t115.5 -48t48 -116t-48 -116t-115.5 -48t-115.5 48t-48 116z" />
<glyph unicode="&#xf8;" d="M86 -246l119 314q-106 104 -107 321v324q0 410 357 409q78 0 145 -22l84 223h139l-110 -293q98 -104 98 -317v-324q0 -410 -356 -409q-81 -1 -142 22l-92 -248h-135zM328 354h4l205 551q-29 29 -82 29q-127 0 -127 -180v-400zM377 193q33 -25 78 -25q127 0 127 180v375 h-4z" />
<glyph unicode="&#xf9;" d="M111 211v891h229v-854q0 -80 82 -80q51 0 147 70v864h230v-1102h-217v111q-66 -55 -89.5 -74t-74.5 -38t-115 -19q-90 0 -141 61t-51 170zM162 1528h276l162 -295h-170z" />
<glyph unicode="&#xfa;" d="M111 211v891h229v-854q0 -80 82 -80q51 0 147 70v864h230v-1102h-217v111q-66 -55 -89.5 -74t-74.5 -38t-115 -19q-90 0 -141 61t-51 170zM309 1233l162 295h277l-269 -295h-170z" />
<glyph unicode="&#xfb;" d="M111 211v891h229v-854q0 -80 82 -80q51 0 147 70v864h230v-1102h-217v111q-66 -55 -89.5 -74t-74.5 -38t-115 -19q-90 0 -141 61t-51 170zM145 1233l197 295h225l197 -295h-189l-120 182l-121 -182h-189z" />
<glyph unicode="&#xfc;" d="M111 211v891h229v-854q0 -80 82 -80q51 0 147 70v864h230v-1102h-217v111q-66 -55 -89.5 -74t-74.5 -38t-115 -19q-90 0 -141 61t-51 170zM182 1257v222h221v-222h-221zM506 1257v222h221v-222h-221z" />
<glyph unicode="&#xfd;" horiz-adv-x="796" d="M20 1102h234l147 -705h5l139 705h231l-289 -1184q-37 -147 -108.5 -205.5t-204.5 -58.5h-96v188h55q84 0 118 43t34 135q0 53 -25 146zM254 1233l162 295h276l-268 -295h-170z" />
<glyph unicode="&#xfe;" d="M111 -348v1827h229v-482h4q49 68 100.5 96.5t133.5 28.5q109 0 171 -79.5t62 -227.5v-528q0 -147 -62.5 -227t-170.5 -80q-47 0 -89.5 16t-67 33.5t-81.5 64.5v-442h-229zM340 225q78 -57 131 -57q111 0 111 178v410q0 178 -111 178q-53 0 -131 -57v-652z" />
<glyph unicode="&#xff;" horiz-adv-x="796" d="M20 1102h234l147 -705h5l139 705h231l-289 -1184q-37 -147 -108.5 -205.5t-204.5 -58.5h-96v188h55q84 0 118 43t34 135q0 53 -25 146zM127 1257v222h221v-222h-221zM451 1257v222h221v-222h-221z" />
<glyph unicode="&#x152;" horiz-adv-x="1478" d="M123 451v577q0 219 109.5 335t320.5 116h819v-222h-442v-380h344v-222h-344v-434h471v-221h-848q-211 0 -320.5 115.5t-109.5 335.5zM377 420q0 -195 158 -195q141 0 141 154v727q0 154 -141 154q-158 0 -158 -195v-645z" />
<glyph unicode="&#x153;" horiz-adv-x="1366" d="M98 389v324q0 190 81 299.5t251 109.5q199 0 262 -125q74 125 244 125t251 -109.5t81 -299.5v-205h-469v-160q0 -96 25.5 -138t86.5 -42q127 0 127 180v25h230q-4 -184 -85 -288.5t-247 -104.5q-176 0 -248 126q-68 -127 -258 -126q-170 0 -251 109.5t-81 299.5zM328 348 q0 -180 127 -180q114 0 114 180v406q0 180 -114 180q-127 0 -127 -180v-406zM799 696h239v58q0 180 -127 180q-61 0 -86.5 -42t-25.5 -138v-58z" />
<glyph unicode="&#x178;" d="M20 1479h259l178 -564h4l170 564h258l-307 -865v-614h-254v614zM182 1581v221h221v-221h-221zM506 1581v221h221v-221h-221z" />
<glyph unicode="&#x2c6;" horiz-adv-x="454" d="M-82 1233l197 295h225l197 -295h-189l-121 182l-121 -182h-188z" />
<glyph unicode="&#x2dc;" horiz-adv-x="454" d="M-106 1249q47 242 210 242q47 0 134 -39q90 -41 122 -41q45 0 64.5 21.5t21.5 68.5h115q-47 -242 -211 -241q-51 0 -133 40q-78 39 -123 39t-64.5 -21.5t-21.5 -68.5h-114z" />
<glyph unicode="&#x2000;" horiz-adv-x="987" />
<glyph unicode="&#x2001;" horiz-adv-x="1974" />
<glyph unicode="&#x2002;" horiz-adv-x="987" />
<glyph unicode="&#x2003;" horiz-adv-x="1974" />
<glyph unicode="&#x2004;" horiz-adv-x="658" />
<glyph unicode="&#x2005;" horiz-adv-x="493" />
<glyph unicode="&#x2006;" horiz-adv-x="329" />
<glyph unicode="&#x2007;" horiz-adv-x="329" />
<glyph unicode="&#x2008;" horiz-adv-x="246" />
<glyph unicode="&#x2009;" horiz-adv-x="394" />
<glyph unicode="&#x200a;" horiz-adv-x="109" />
<glyph unicode="&#x2010;" horiz-adv-x="681" d="M90 457v188h502v-188h-502z" />
<glyph unicode="&#x2011;" horiz-adv-x="681" d="M90 457v188h502v-188h-502z" />
<glyph unicode="&#x2012;" horiz-adv-x="681" d="M90 457v188h502v-188h-502z" />
<glyph unicode="&#x2013;" horiz-adv-x="1024" d="M0 477v148h1024v-148h-1024z" />
<glyph unicode="&#x2014;" horiz-adv-x="2048" d="M0 477v148h2048v-148h-2048z" />
<glyph unicode="&#x2018;" horiz-adv-x="454" d="M106 1004v241l142 254h108l-100 -254h92v-241h-242z" />
<glyph unicode="&#x2019;" horiz-adv-x="454" d="M98 983l101 254h-93v242h242v-242l-141 -254h-109z" />
<glyph unicode="&#x201a;" horiz-adv-x="454" d="M98 -254l101 254h-93v242h242v-242l-141 -254h-109z" />
<glyph unicode="&#x201c;" d="M143 1004v241l142 254h108l-100 -254h92v-241h-242zM522 1004v241l142 254h108l-100 -254h92v-241h-242z" />
<glyph unicode="&#x201d;" d="M137 983l101 254h-93v242h242v-242l-141 -254h-109zM516 983l100 254h-92v242h242v-242l-141 -254h-109z" />
<glyph unicode="&#x201e;" d="M137 -254l101 254h-93v242h242v-242l-141 -254h-109zM516 -254l100 254h-92v242h242v-242l-141 -254h-109z" />
<glyph unicode="&#x2022;" horiz-adv-x="1024" d="M141 739.5q0 153.5 107.5 261t261.5 107.5t262.5 -107.5t108.5 -261t-108.5 -262t-262.5 -108.5t-261.5 108.5t-107.5 262z" />
<glyph unicode="&#x2026;" horiz-adv-x="2048" d="M225 0v242h234v-242h-234zM907 0v242h234v-242h-234zM1589 0v242h234v-242h-234z" />
<glyph unicode="&#x202f;" horiz-adv-x="394" />
<glyph unicode="&#x2039;" horiz-adv-x="681" d="M129 553l236 313h202l-239 -315l233 -315h-196z" />
<glyph unicode="&#x203a;" horiz-adv-x="681" d="M115 866h202l236 -313l-236 -317h-196l233 315z" />
<glyph unicode="&#x205f;" horiz-adv-x="493" />
<glyph unicode="&#x2122;" horiz-adv-x="2027" d="M70 1325v154h688v-154h-246v-690h-197v690h-245zM866 635v844h279l211 -555l211 555h276v-844h-188v618h-4l-226 -618h-141l-225 618h-4v-618h-189z" />
<glyph unicode="&#x25fc;" horiz-adv-x="1100" d="M0 0v1100h1100v-1100h-1100z" />
<glyph unicode="&#xfb01;" d="M-8 913v189h135v137q0 260 256 260h115v-188h-66q-41 0 -58.5 -16.5t-17.5 -57.5v-135h131v-189h-131v-913h-229v913h-135zM567 0v1102h230v-1102h-230zM567 1270v209h230v-209h-230z" />
<glyph unicode="&#xfb02;" d="M-8 913v189h135v137q0 260 256 260h115v-188h-66q-41 0 -58.5 -16.5t-17.5 -57.5v-135h131v-189h-131v-913h-229v913h-135zM567 0v1479h230v-1479h-230z" />
</font>
</defs></svg> 